[
  {
    "__type__": "cc.Prefab",
    "_name": "",
    "_objFlags": 0,
    "_native": "",
    "data": {
      "__id__": 1
    },
    "optimizationPolicy": 0,
    "asyncLoadAssets": false
  },
  {
    "__type__": "cc.Node",
    "_name": "particleGinie",
    "_objFlags": 0,
    "_parent": null,
    "_children": [],
    "_active": true,
    "_level": 1,
    "_components": [
      {
        "__id__": 2
      },
      {
        "__id__": 3
      }
    ],
    "_prefab": {
      "__id__": 4
    },
    "_opacity": 255,
    "_color": {
      "__type__": "cc.Color",
      "r": 255,
      "g": 255,
      "b": 255,
      "a": 255
    },
    "_contentSize": {
      "__type__": "cc.Size",
      "width": 0,
      "height": 0
    },
    "_anchorPoint": {
      "__type__": "cc.Vec2",
      "x": 0.5,
      "y": 0.5
    },
    "_position": {
      "__type__": "cc.Vec3",
      "x": 371,
      "y": 173,
      "z": 0
    },
    "_scale": {
      "__type__": "cc.Vec3",
      "x": 0.3,
      "y": 0.3,
      "z": 1
    },
    "_rotationX": 0,
    "_rotationY": 0,
    "_quat": {
      "__type__": "cc.Quat",
      "x": 0,
      "y": 0,
      "z": 0,
      "w": 1
    },
    "_skewX": 0,
    "_skewY": 0,
    "groupIndex": 0,
    "_id": ""
  },
  {
    "__type__": "cc.ParticleSystem",
    "_name": "",
    "_objFlags": 0,
    "node": {
      "__id__": 1
    },
    "_enabled": true,
    "_custom": true,
    "_file": {
      "__uuid__": "fe0cc5f7-adeb-4206-a112-8f5f06a87925"
    },
    "_spriteFrame": null,
    "_texture": null,
    "_srcBlendFactor": 775,
    "_dstBlendFactor": 1,
    "_stopped": true,
    "playOnLoad": true,
    "autoRemoveOnFinish": true,
    "totalParticles": 158,
    "duration": 0.2,
    "emissionRate": 261.6666666666667,
    "life": 0.6,
    "lifeVar": 0.4,
    "_startColor": {
      "__type__": "cc.Color",
      "r": 70,
      "g": 70,
      "b": 250,
      "a": 255
    },
    "_startColorVar": {
      "__type__": "cc.Color",
      "r": 38,
      "g": 38,
      "b": 219,
      "a": 243
    },
    "_endColor": {
      "__type__": "cc.Color",
      "r": 153,
      "g": 102,
      "b": 255,
      "a": 255
    },
    "_endColorVar": {
      "__type__": "cc.Color",
      "r": 0,
      "g": 0,
      "b": 0,
      "a": 0
    },
    "angle": 90,
    "angleVar": 40,
    "startSize": 95,
    "startSizeVar": 37,
    "endSize": 40,
    "endSizeVar": 0,
    "startSpin": 720,
    "startSpinVar": 0,
    "endSpin": 0,
    "endSpinVar": 0,
    "sourcePos": {
      "__type__": "cc.Vec2",
      "x": 0,
      "y": 0
    },
    "posVar": {
      "__type__": "cc.Vec2",
      "x": 71,
      "y": 68
    },
    "positionType": 0,
    "emitterMode": 0,
    "gravity": {
      "__type__": "cc.Vec2",
      "x": 0,
      "y": 0
    },
    "speed": 216,
    "speedVar": 0,
    "tangentialAccel": 0,
    "tangentialAccelVar": 0,
    "radialAccel": 0,
    "radialAccelVar": 0,
    "rotationIsDir": false,
    "startRadius": 70,
    "startRadiusVar": 20,
    "endRadius": 120,
    "endRadiusVar": 20,
    "rotatePerS": 720,
    "rotatePerSVar": 10,
    "_N$preview": true,
    "_id": ""
  },
  {
    "__type__": "d4b57fo6WxO+4+t8ajTFPny",
    "_name": "",
    "_objFlags": 0,
    "node": {
      "__id__": 1
    },
    "_enabled": true,
    "zIndexVal": -1,
    "_id": ""
  },
  {
    "__type__": "cc.PrefabInfo",
    "root": {
      "__id__": 1
    },
    "asset": {
      "__uuid__": "175d0832-cdd3-4eb1-98eb-9f82e4c4d6f5"
    },
    "fileId": "35SQnsuytBH4iqZ8w+ndvW",
    "sync": false
  }
]