{
  "assets-sort-type": "name",
  "collision-matrix": [
    [
      false
    ],
    [
      false,
      false,
      false,
      false
    ],
    [
      false,
      false,
      false
    ],
    [
      false,
      false,
      false,
      false
    ],
    [
      false,
      false,
      false,
      false,
      false
    ],
    [
      false,
      false,
      false,
      false,
      false,
      false
    ]
  ],
  "design-resolution-height": 640,
  "design-resolution-width": 960,
  "excluded-modules": [],
  "facebook": {
    "appID": "",
    "audience": {
      "enable": false
    },
    "enable": false,
    "live": {
      "enable": false
    }
  },
  "fit-height": true,
  "fit-width": false,
  "group-list": [
    "Items",
    "Player",
    "Enemy",
    "PowerUps",
    "Background",
    "Foreground"
  ],
  "last-module-event-record-time": 0,
  "simulator-orientation": false,
  "simulator-resolution": {
    "height": 640,
    "width": 960
  },
  "use-customize-simulator": true,
  "use-project-simulator-setting": false,
  "start-scene": "current"
}